…
Great our data is now nice and tidy.

## 2 What is mean total number of steps taken per day?

1. The total number of steps per day looks like:

```r
total_steps <- activity.data %>% 
    group_by(date) %>% 
    summarise(total.steps = sum(steps,na.rm=TRUE))
total_steps
```

```
## # A tibble: 61 x 2
##          date total.steps
##        <date>       <int>
##  1 2012-10-01           0
##  2 2012-10-02         126
##  3 2012-10-03       11352
##  4 2012-10-04       12116
##  5 2012-10-05       13294
##  6 2012-10-06       15420
##  7 2012-10-07       11015
##  8 2012-10-08           0
##  9 2012-10-09       12811
## 10 2012-10-10        9900
## # ... with 51 more rows
```
…
## 3 What is the average daily activity pattern?

1. Calculate average number of steps per interval across all days:


```r
interval_steps <- activity.data %>% group_by(interval) %>% 
    summarise(mean.step = mean(steps,na.rm=TRUE))
interval_steps
```

```
## # A tibble: 288 x 2
##    interval mean.step
##       <int>     <dbl>
##  1        0 1.7169811
##  2        5 0.3396226
##  3       10 0.1320755
##  4       15 0.1509434
##  5       20 0.0754717
##  6       25 2.0943396
##  7       30 0.5283019
##  8       35 0.8679245
##  9       40 0.0000000
## 10       45 1.4716981
## # ... with 278 more rows
```
…
